[
    {
        "c": 211,
        "i": 0,
        "Invoice": 885256,
        "Usage": 3672
    },
    {
        "c": 210,
        "i": 0,
        "Invoice": 885255,
        "Usage": 3642
    },
    {
        "c": 209,
        "i": 0,
        "Invoice": 885254,
        "Usage": 3612
    },
    {
        "c": 208,
        "i": 2,
        "Invoice": 885253,
        "Usage": 3582
    },
    {
        "c": 208,
        "i": 1,
        "Invoice": 885252,
        "Usage": 3552
    },
    {
        "c": 208,
        "i": 0,
        "Invoice": 885251,
        "Usage": 3522
    },
    {
        "c": 207,
        "i": 0,
        "Invoice": 885250,
        "Usage": 3492
    },
    {
        "c": 206,
        "i": 7,
        "Invoice": 885249,
        "Usage": 3462
    },
    {
        "c": 206,
        "i": 6,
        "Invoice": 885248,
        "Usage": 3432
    },
    {
        "c": 206,
        "i": 5,
        "Invoice": 885247,
        "Usage": 3402
    },
    {
        "c": 206,
        "i": 4,
        "Invoice": 885246,
        "Usage": 3372
    },
    {
        "c": 206,
        "i": 3,
        "Invoice": 885245,
        "Usage": 3342
    },
    {
        "c": 206,
        "i": 2,
        "Invoice": 885244,
        "Usage": 3312
    },
    {
        "c": 206,
        "i": 1,
        "Invoice": 885243,
        "Usage": 3282
    },
    {
        "c": 206,
        "i": 0,
        "Invoice": 885242,
        "Usage": 3252
    },
    {
        "c": 205,
        "i": 0,
        "Invoice": 885241,
        "Usage": 3222
    },
    {
        "c": 204,
        "i": 2,
        "Invoice": 885240,
        "Usage": 3192
    },
    {
        "c": 204,
        "i": 1,
        "Invoice": 885239,
        "Usage": 3162
    },
    {
        "c": 204,
        "i": 0,
        "Invoice": 885238,
        "Usage": 3132
    },
    {
        "c": 203,
        "i": 2,
        "Invoice": 885237,
        "Usage": 3102
    },
    {
        "c": 203,
        "i": 1,
        "Invoice": 885236,
        "Usage": 3072
    },
    {
        "c": 203,
        "i": 0,
        "Invoice": 885235,
        "Usage": 3042
    },
    {
        "c": 202,
        "i": 2,
        "Invoice": 885234,
        "Usage": 3012
    },
    {
        "c": 202,
        "i": 1,
        "Invoice": 885233,
        "Usage": 2982
    },
    {
        "c": 202,
        "i": 0,
        "Invoice": 885232,
        "Usage": 2952
    },
    {
        "c": 201,
        "i": 9,
        "Invoice": 885231,
        "Usage": 2922
    },
    {
        "c": 201,
        "i": 8,
        "Invoice": 885230,
        "Usage": 2892
    },
    {
        "c": 201,
        "i": 7,
        "Invoice": 885229,
        "Usage": 2862
    },
    {
        "c": 201,
        "i": 6,
        "Invoice": 885228,
        "Usage": 2832
    },
    {
        "c": 201,
        "i": 5,
        "Invoice": 885227,
        "Usage": 2802
    },
    {
        "c": 201,
        "i": 4,
        "Invoice": 885226,
        "Usage": 2772
    },
    {
        "c": 201,
        "i": 3,
        "Invoice": 885225,
        "Usage": 2742
    },
    {
        "c": 201,
        "i": 2,
        "Invoice": 885224,
        "Usage": 2712
    },
    {
        "c": 201,
        "i": 1,
        "Invoice": 885223,
        "Usage": 2682
    },
    {
        "c": 201,
        "i": 0,
        "Invoice": 885222,
        "Usage": 2652
    },
    {
        "c": 200,
        "i": 1,
        "Invoice": 885221,
        "Usage": 2622
    },
    {
        "c": 200,
        "i": 0,
        "Invoice": 885220,
        "Usage": 2592
    },
    {
        "c": 199,
        "i": 1,
        "Invoice": 885219,
        "Usage": 2562
    },
    {
        "c": 199,
        "i": 0,
        "Invoice": 885218,
        "Usage": 2532
    },
    {
        "c": 198,
        "i": 3,
        "Invoice": 885217,
        "Usage": 2502
    },
    {
        "c": 198,
        "i": 2,
        "Invoice": 885216,
        "Usage": 2472
    },
    {
        "c": 198,
        "i": 1,
        "Invoice": 885215,
        "Usage": 2442
    },
    {
        "c": 198,
        "i": 0,
        "Invoice": 885214,
        "Usage": 2412
    },
    {
        "c": 197,
        "i": 0,
        "Invoice": 885213,
        "Usage": 2382
    },
    {
        "c": 196,
        "i": 2,
        "Invoice": 885212,
        "Usage": 2352
    },
    {
        "c": 196,
        "i": 1,
        "Invoice": 885211,
        "Usage": 2322
    },
    {
        "c": 196,
        "i": 0,
        "Invoice": 885210,
        "Usage": 2292
    },
    {
        "c": 195,
        "i": 1,
        "Invoice": 885209,
        "Usage": 2262
    },
    {
        "c": 195,
        "i": 0,
        "Invoice": 885208,
        "Usage": 2232
    },
    {
        "c": 194,
        "i": 4,
        "Invoice": 885207,
        "Usage": 2202
    },
    {
        "c": 194,
        "i": 3,
        "Invoice": 885206,
        "Usage": 2172
    },
    {
        "c": 194,
        "i": 2,
        "Invoice": 885205,
        "Usage": 2142
    },
    {
        "c": 194,
        "i": 1,
        "Invoice": 885204,
        "Usage": 2112
    },
    {
        "c": 194,
        "i": 0,
        "Invoice": 885203,
        "Usage": 2082
    },
    {
        "c": 193,
        "i": 0,
        "Invoice": 885202,
        "Usage": 2052
    },
    {
        "c": 192,
        "i": 1,
        "Invoice": 885201,
        "Usage": 2022
    },
    {
        "c": 192,
        "i": 0,
        "Invoice": 885200,
        "Usage": 1992
    },
    {
        "c": 191,
        "i": 0,
        "Invoice": 885199,
        "Usage": 1962
    },
    {
        "c": 190,
        "i": 1,
        "Invoice": 885198,
        "Usage": 1932
    },
    {
        "c": 190,
        "i": 0,
        "Invoice": 885197,
        "Usage": 1902
    },
    {
        "c": 189,
        "i": 0,
        "Invoice": 885196,
        "Usage": 1872
    },
    {
        "c": 188,
        "i": 1,
        "Invoice": 885195,
        "Usage": 1842
    },
    {
        "c": 188,
        "i": 0,
        "Invoice": 885194,
        "Usage": 1812
    },
    {
        "c": 187,
        "i": 2,
        "Invoice": 885193,
        "Usage": 1782
    },
    {
        "c": 187,
        "i": 1,
        "Invoice": 885192,
        "Usage": 1752
    },
    {
        "c": 187,
        "i": 0,
        "Invoice": 885191,
        "Usage": 1722
    },
    {
        "c": 186,
        "i": 0,
        "Invoice": 885190,
        "Usage": 1692
    },
    {
        "c": 185,
        "i": 1,
        "Invoice": 885189,
        "Usage": 1662
    },
    {
        "c": 185,
        "i": 0,
        "Invoice": 885188,
        "Usage": 1632
    },
    {
        "c": 184,
        "i": 15,
        "Invoice": 885187,
        "Usage": 1602
    },
    {
        "c": 184,
        "i": 14,
        "Invoice": 885186,
        "Usage": 1572
    },
    {
        "c": 184,
        "i": 13,
        "Invoice": 885185,
        "Usage": 1542
    },
    {
        "c": 184,
        "i": 12,
        "Invoice": 885184,
        "Usage": 1512
    },
    {
        "c": 184,
        "i": 11,
        "Invoice": 885183,
        "Usage": 1482
    },
    {
        "c": 184,
        "i": 10,
        "Invoice": 885182,
        "Usage": 1452
    },
    {
        "c": 184,
        "i": 9,
        "Invoice": 885181,
        "Usage": 1422
    },
    {
        "c": 184,
        "i": 8,
        "Invoice": 885180,
        "Usage": 1392
    },
    {
        "c": 184,
        "i": 7,
        "Invoice": 885179,
        "Usage": 1362
    },
    {
        "c": 184,
        "i": 6,
        "Invoice": 885178,
        "Usage": 1332
    },
    {
        "c": 184,
        "i": 5,
        "Invoice": 885177,
        "Usage": 1302
    },
    {
        "c": 184,
        "i": 4,
        "Invoice": 885176,
        "Usage": 1272
    },
    {
        "c": 184,
        "i": 3,
        "Invoice": 885175,
        "Usage": 1242
    },
    {
        "c": 184,
        "i": 2,
        "Invoice": 885174,
        "Usage": 1212
    },
    {
        "c": 184,
        "i": 1,
        "Invoice": 885173,
        "Usage": 1182
    },
    {
        "c": 184,
        "i": 0,
        "Invoice": 885172,
        "Usage": 1152
    },
    {
        "c": 183,
        "i": 1,
        "Invoice": 885171,
        "Usage": 1122
    },
    {
        "c": 183,
        "i": 0,
        "Invoice": 885170,
        "Usage": 1092
    },
    {
        "c": 182,
        "i": 0,
        "Invoice": 885169,
        "Usage": 1062
    },
    {
        "c": 181,
        "i": 0,
        "Invoice": 885168,
        "Usage": 1032
    },
    {
        "c": 180,
        "i": 0,
        "Invoice": 885167,
        "Usage": 1002
    },
    {
        "c": 179,
        "i": 1,
        "Invoice": 885166,
        "Usage": 972
    },
    {
        "c": 179,
        "i": 0,
        "Invoice": 885165,
        "Usage": 942
    },
    {
        "c": 178,
        "i": 0,
        "Invoice": 885164,
        "Usage": 912
    },
    {
        "c": 177,
        "i": 2,
        "Invoice": 885163,
        "Usage": 882
    },
    {
        "c": 177,
        "i": 1,
        "Invoice": 885162,
        "Usage": 852
    },
    {
        "c": 177,
        "i": 0,
        "Invoice": 885161,
        "Usage": 822
    },
    {
        "c": 176,
        "i": 0,
        "Invoice": 885160,
        "Usage": 792
    },
    {
        "c": 175,
        "i": 0,
        "Invoice": 885159,
        "Usage": 762
    },
    {
        "c": 174,
        "i": 0,
        "Invoice": 885158,
        "Usage": 732
    },
    {
        "c": 173,
        "i": 0,
        "Invoice": 885157,
        "Usage": 702
    },
    {
        "c": 172,
        "i": 0,
        "Invoice": 885156,
        "Usage": 672
    },
    {
        "c": 171,
        "i": 2,
        "Invoice": 885155,
        "Usage": 642
    },
    {
        "c": 171,
        "i": 1,
        "Invoice": 885154,
        "Usage": 612
    },
    {
        "c": 171,
        "i": 0,
        "Invoice": 885153,
        "Usage": 582
    },
    {
        "c": 170,
        "i": 4,
        "Invoice": 885152,
        "Usage": 552
    },
    {
        "c": 170,
        "i": 3,
        "Invoice": 885151,
        "Usage": 522
    },
    {
        "c": 170,
        "i": 2,
        "Invoice": 885150,
        "Usage": 492
    },
    {
        "c": 170,
        "i": 1,
        "Invoice": 885149,
        "Usage": 462
    },
    {
        "c": 170,
        "i": 0,
        "Invoice": 885148,
        "Usage": 432
    },
    {
        "c": 169,
        "i": 0,
        "Invoice": 885147,
        "Usage": 402
    },
    {
        "c": 168,
        "i": 1,
        "Invoice": 885146,
        "Usage": 372
    },
    {
        "c": 168,
        "i": 0,
        "Invoice": 885145,
        "Usage": 342
    },
    {
        "c": 167,
        "i": 5,
        "Invoice": 885144,
        "Usage": 312
    },
    {
        "c": 167,
        "i": 4,
        "Invoice": 885143,
        "Usage": 282
    },
    {
        "c": 167,
        "i": 3,
        "Invoice": 885142,
        "Usage": 252
    },
    {
        "c": 167,
        "i": 2,
        "Invoice": 885141,
        "Usage": 222
    },
    {
        "c": 167,
        "i": 1,
        "Invoice": 885140,
        "Usage": 192
    },
    {
        "c": 167,
        "i": 0,
        "Invoice": 885139,
        "Usage": 162
    },
    {
        "c": 166,
        "i": 3,
        "Invoice": 885138,
        "Usage": 132
    },
    {
        "c": 166,
        "i": 2,
        "Invoice": 885137,
        "Usage": 102
    },
    {
        "c": 166,
        "i": 1,
        "Invoice": 885136,
        "Usage": 72
    },
    {
        "c": 166,
        "i": 0,
        "Invoice": 885135,
        "Usage": 42
    },
    {
        "c": 165,
        "i": 0,
        "Invoice": 0,
        "Usage": 12
    },
    {
        "c": 164,
        "i": 0,
        "Invoice": 885134,
        "Usage": 4332
    },
    {
        "c": 163,
        "i": 0,
        "Invoice": 885133,
        "Usage": 4302
    },
    {
        "c": 162,
        "i": 5,
        "Invoice": 885132,
        "Usage": 4272
    },
    {
        "c": 162,
        "i": 4,
        "Invoice": 885131,
        "Usage": 4242
    },
    {
        "c": 162,
        "i": 3,
        "Invoice": 885130,
        "Usage": 4212
    },
    {
        "c": 162,
        "i": 2,
        "Invoice": 885129,
        "Usage": 4182
    },
    {
        "c": 162,
        "i": 1,
        "Invoice": 885128,
        "Usage": 4152
    },
    {
        "c": 162,
        "i": 0,
        "Invoice": 885127,
        "Usage": 4122
    },
    {
        "c": 161,
        "i": 0,
        "Invoice": 885126,
        "Usage": 4092
    },
    {
        "c": 160,
        "i": 4,
        "Invoice": 885125,
        "Usage": 4062
    },
    {
        "c": 160,
        "i": 3,
        "Invoice": 885124,
        "Usage": 4032
    },
    {
        "c": 160,
        "i": 2,
        "Invoice": 885123,
        "Usage": 4002
    },
    {
        "c": 160,
        "i": 1,
        "Invoice": 885122,
        "Usage": 3972
    },
    {
        "c": 160,
        "i": 0,
        "Invoice": 885121,
        "Usage": 3942
    },
    {
        "c": 159,
        "i": 2,
        "Invoice": 885120,
        "Usage": 3912
    },
    {
        "c": 159,
        "i": 1,
        "Invoice": 885119,
        "Usage": 3882
    },
    {
        "c": 159,
        "i": 0,
        "Invoice": 885118,
        "Usage": 3852
    },
    {
        "c": 158,
        "i": 0,
        "Invoice": 885117,
        "Usage": 3822
    },
    {
        "c": 157,
        "i": 0,
        "Invoice": 885116,
        "Usage": 3792
    },
    {
        "c": 156,
        "i": 1,
        "Invoice": 885115,
        "Usage": 3762
    },
    {
        "c": 156,
        "i": 0,
        "Invoice": 885114,
        "Usage": 3732
    },
    {
        "c": 155,
        "i": 0,
        "Invoice": 885113,
        "Usage": 3702
    },
    {
        "c": 154,
        "i": 2,
        "Invoice": 885112,
        "Usage": 3672
    },
    {
        "c": 154,
        "i": 1,
        "Invoice": 885111,
        "Usage": 3642
    },
    {
        "c": 154,
        "i": 0,
        "Invoice": 885110,
        "Usage": 3612
    },
    {
        "c": 153,
        "i": 2,
        "Invoice": 885109,
        "Usage": 3582
    },
    {
        "c": 153,
        "i": 1,
        "Invoice": 885108,
        "Usage": 3552
    },
    {
        "c": 153,
        "i": 0,
        "Invoice": 885107,
        "Usage": 3522
    },
    {
        "c": 152,
        "i": 2,
        "Invoice": 885106,
        "Usage": 3492
    },
    {
        "c": 152,
        "i": 1,
        "Invoice": 885105,
        "Usage": 3462
    },
    {
        "c": 152,
        "i": 0,
        "Invoice": 885104,
        "Usage": 3432
    },
    {
        "c": 151,
        "i": 1,
        "Invoice": 885103,
        "Usage": 3402
    },
    {
        "c": 151,
        "i": 0,
        "Invoice": 885102,
        "Usage": 3372
    },
    {
        "c": 150,
        "i": 2,
        "Invoice": 885101,
        "Usage": 3342
    },
    {
        "c": 150,
        "i": 1,
        "Invoice": 885100,
        "Usage": 3312
    },
    {
        "c": 150,
        "i": 0,
        "Invoice": 885099,
        "Usage": 3282
    },
    {
        "c": 149,
        "i": 0,
        "Invoice": 885098,
        "Usage": 3252
    },
    {
        "c": 148,
        "i": 25,
        "Invoice": 885097,
        "Usage": 3222
    },
    {
        "c": 148,
        "i": 24,
        "Invoice": 885096,
        "Usage": 3192
    },
    {
        "c": 148,
        "i": 23,
        "Invoice": 885095,
        "Usage": 3162
    },
    {
        "c": 148,
        "i": 22,
        "Invoice": 885094,
        "Usage": 3132
    },
    {
        "c": 148,
        "i": 21,
        "Invoice": 885093,
        "Usage": 3102
    },
    {
        "c": 148,
        "i": 20,
        "Invoice": 885092,
        "Usage": 3072
    },
    {
        "c": 148,
        "i": 19,
        "Invoice": 885091,
        "Usage": 3042
    },
    {
        "c": 148,
        "i": 18,
        "Invoice": 885090,
        "Usage": 3012
    },
    {
        "c": 148,
        "i": 17,
        "Invoice": 885089,
        "Usage": 2982
    },
    {
        "c": 148,
        "i": 16,
        "Invoice": 885088,
        "Usage": 2952
    },
    {
        "c": 148,
        "i": 15,
        "Invoice": 885087,
        "Usage": 2922
    },
    {
        "c": 148,
        "i": 14,
        "Invoice": 885086,
        "Usage": 2892
    },
    {
        "c": 148,
        "i": 13,
        "Invoice": 885085,
        "Usage": 2862
    },
    {
        "c": 148,
        "i": 12,
        "Invoice": 885084,
        "Usage": 2832
    },
    {
        "c": 148,
        "i": 11,
        "Invoice": 885083,
        "Usage": 2802
    },
    {
        "c": 148,
        "i": 10,
        "Invoice": 885082,
        "Usage": 2772
    },
    {
        "c": 148,
        "i": 9,
        "Invoice": 885081,
        "Usage": 2742
    },
    {
        "c": 148,
        "i": 8,
        "Invoice": 885080,
        "Usage": 2712
    },
    {
        "c": 148,
        "i": 7,
        "Invoice": 885079,
        "Usage": 2682
    },
    {
        "c": 148,
        "i": 6,
        "Invoice": 885078,
        "Usage": 2652
    },
    {
        "c": 148,
        "i": 5,
        "Invoice": 885077,
        "Usage": 2622
    },
    {
        "c": 148,
        "i": 4,
        "Invoice": 885076,
        "Usage": 2592
    },
    {
        "c": 148,
        "i": 3,
        "Invoice": 885075,
        "Usage": 2562
    },
    {
        "c": 148,
        "i": 2,
        "Invoice": 885074,
        "Usage": 2532
    },
    {
        "c": 148,
        "i": 1,
        "Invoice": 885073,
        "Usage": 2502
    },
    {
        "c": 148,
        "i": 0,
        "Invoice": 885072,
        "Usage": 2472
    },
    {
        "c": 147,
        "i": 0,
        "Invoice": 885071,
        "Usage": 2442
    },
    {
        "c": 146,
        "i": 0,
        "Invoice": 885070,
        "Usage": 2412
    },
    {
        "c": 145,
        "i": 2,
        "Invoice": 885069,
        "Usage": 2382
    },
    {
        "c": 145,
        "i": 1,
        "Invoice": 885068,
        "Usage": 2352
    },
    {
        "c": 145,
        "i": 0,
        "Invoice": 885067,
        "Usage": 2322
    },
    {
        "c": 144,
        "i": 2,
        "Invoice": 885066,
        "Usage": 2292
    },
    {
        "c": 144,
        "i": 1,
        "Invoice": 885065,
        "Usage": 2262
    },
    {
        "c": 144,
        "i": 0,
        "Invoice": 885064,
        "Usage": 2232
    },
    {
        "c": 143,
        "i": 0,
        "Invoice": 885063,
        "Usage": 2202
    },
    {
        "c": 142,
        "i": 0,
        "Invoice": 885062,
        "Usage": 2172
    },
    {
        "c": 141,
        "i": 0,
        "Invoice": 885061,
        "Usage": 2142
    },
    {
        "c": 140,
        "i": 1,
        "Invoice": 885060,
        "Usage": 2112
    },
    {
        "c": 140,
        "i": 0,
        "Invoice": 885059,
        "Usage": 2082
    },
    {
        "c": 139,
        "i": 2,
        "Invoice": 885058,
        "Usage": 2052
    },
    {
        "c": 139,
        "i": 1,
        "Invoice": 885057,
        "Usage": 2022
    },
    {
        "c": 139,
        "i": 0,
        "Invoice": 885056,
        "Usage": 1992
    },
    {
        "c": 138,
        "i": 0,
        "Invoice": 885055,
        "Usage": 1962
    },
    {
        "c": 137,
        "i": 0,
        "Invoice": 885054,
        "Usage": 1932
    },
    {
        "c": 136,
        "i": 12,
        "Invoice": 885053,
        "Usage": 1902
    },
    {
        "c": 136,
        "i": 11,
        "Invoice": 885052,
        "Usage": 1872
    },
    {
        "c": 136,
        "i": 10,
        "Invoice": 885051,
        "Usage": 1842
    },
    {
        "c": 136,
        "i": 9,
        "Invoice": 885050,
        "Usage": 1812
    },
    {
        "c": 136,
        "i": 8,
        "Invoice": 885049,
        "Usage": 1782
    },
    {
        "c": 136,
        "i": 7,
        "Invoice": 885048,
        "Usage": 1752
    },
    {
        "c": 136,
        "i": 6,
        "Invoice": 885047,
        "Usage": 1722
    },
    {
        "c": 136,
        "i": 5,
        "Invoice": 885046,
        "Usage": 1692
    },
    {
        "c": 136,
        "i": 4,
        "Invoice": 885045,
        "Usage": 1662
    },
    {
        "c": 136,
        "i": 3,
        "Invoice": 885044,
        "Usage": 1632
    },
    {
        "c": 136,
        "i": 2,
        "Invoice": 885043,
        "Usage": 1602
    },
    {
        "c": 136,
        "i": 1,
        "Invoice": 885042,
        "Usage": 1572
    },
    {
        "c": 136,
        "i": 0,
        "Invoice": 885041,
        "Usage": 1542
    },
    {
        "c": 135,
        "i": 15,
        "Invoice": 885040,
        "Usage": 1512
    },
    {
        "c": 135,
        "i": 14,
        "Invoice": 885039,
        "Usage": 1482
    },
    {
        "c": 135,
        "i": 13,
        "Invoice": 885038,
        "Usage": 1452
    },
    {
        "c": 135,
        "i": 12,
        "Invoice": 885037,
        "Usage": 1422
    },
    {
        "c": 135,
        "i": 11,
        "Invoice": 885036,
        "Usage": 1392
    },
    {
        "c": 135,
        "i": 10,
        "Invoice": 885035,
        "Usage": 1362
    },
    {
        "c": 135,
        "i": 9,
        "Invoice": 885034,
        "Usage": 1332
    },
    {
        "c": 135,
        "i": 8,
        "Invoice": 885033,
        "Usage": 1302
    },
    {
        "c": 135,
        "i": 7,
        "Invoice": 885032,
        "Usage": 1272
    },
    {
        "c": 135,
        "i": 6,
        "Invoice": 885031,
        "Usage": 1242
    },
    {
        "c": 135,
        "i": 5,
        "Invoice": 885030,
        "Usage": 1212
    },
    {
        "c": 135,
        "i": 4,
        "Invoice": 885029,
        "Usage": 1182
    },
    {
        "c": 135,
        "i": 3,
        "Invoice": 885028,
        "Usage": 1152
    },
    {
        "c": 135,
        "i": 2,
        "Invoice": 885027,
        "Usage": 1122
    },
    {
        "c": 135,
        "i": 1,
        "Invoice": 885026,
        "Usage": 1092
    },
    {
        "c": 135,
        "i": 0,
        "Invoice": 885025,
        "Usage": 1062
    },
    {
        "c": 134,
        "i": 0,
        "Invoice": 885024,
        "Usage": 1032
    },
    {
        "c": 133,
        "i": 9,
        "Invoice": 885023,
        "Usage": 1002
    },
    {
        "c": 133,
        "i": 8,
        "Invoice": 885022,
        "Usage": 972
    },
    {
        "c": 133,
        "i": 7,
        "Invoice": 885021,
        "Usage": 942
    },
    {
        "c": 133,
        "i": 6,
        "Invoice": 885020,
        "Usage": 912
    },
    {
        "c": 133,
        "i": 5,
        "Invoice": 885019,
        "Usage": 882
    },
    {
        "c": 133,
        "i": 4,
        "Invoice": 885018,
        "Usage": 852
    },
    {
        "c": 133,
        "i": 3,
        "Invoice": 885017,
        "Usage": 822
    },
    {
        "c": 133,
        "i": 2,
        "Invoice": 885016,
        "Usage": 792
    },
    {
        "c": 133,
        "i": 1,
        "Invoice": 885015,
        "Usage": 762
    },
    {
        "c": 133,
        "i": 0,
        "Invoice": 885014,
        "Usage": 732
    },
    {
        "c": 132,
        "i": 6,
        "Invoice": 885013,
        "Usage": 702
    },
    {
        "c": 132,
        "i": 5,
        "Invoice": 885012,
        "Usage": 672
    },
    {
        "c": 132,
        "i": 4,
        "Invoice": 885011,
        "Usage": 642
    },
    {
        "c": 132,
        "i": 3,
        "Invoice": 885010,
        "Usage": 612
    },
    {
        "c": 132,
        "i": 2,
        "Invoice": 885009,
        "Usage": 582
    },
    {
        "c": 132,
        "i": 1,
        "Invoice": 885008,
        "Usage": 552
    },
    {
        "c": 132,
        "i": 0,
        "Invoice": 885007,
        "Usage": 522
    },
    {
        "c": 131,
        "i": 7,
        "Invoice": 885006,
        "Usage": 492
    },
    {
        "c": 131,
        "i": 6,
        "Invoice": 885005,
        "Usage": 462
    },
    {
        "c": 131,
        "i": 5,
        "Invoice": 885004,
        "Usage": 432
    },
    {
        "c": 131,
        "i": 4,
        "Invoice": 885003,
        "Usage": 402
    },
    {
        "c": 131,
        "i": 3,
        "Invoice": 885002,
        "Usage": 372
    },
    {
        "c": 131,
        "i": 2,
        "Invoice": 885001,
        "Usage": 342
    },
    {
        "c": 131,
        "i": 1,
        "Invoice": 885000,
        "Usage": 312
    },
    {
        "c": 131,
        "i": 0,
        "Invoice": 884999,
        "Usage": 282
    },
    {
        "c": 130,
        "i": 2,
        "Invoice": 884998,
        "Usage": 252
    },
    {
        "c": 130,
        "i": 1,
        "Invoice": 884997,
        "Usage": 222
    },
    {
        "c": 130,
        "i": 0,
        "Invoice": 884996,
        "Usage": 192
    },
    {
        "c": 129,
        "i": 1,
        "Invoice": 884995,
        "Usage": 162
    },
    {
        "c": 129,
        "i": 0,
        "Invoice": 884994,
        "Usage": 132
    },
    {
        "c": 128,
        "i": 1,
        "Invoice": 884993,
        "Usage": 102
    },
    {
        "c": 128,
        "i": 0,
        "Invoice": 884992,
        "Usage": 72
    },
    {
        "c": 127,
        "i": 0,
        "Invoice": 884991,
        "Usage": 42
    },
    {
        "c": 126,
        "i": 31,
        "Invoice": 884920,
        "Usage": 9912
    },
    {
        "c": 126,
        "i": 30,
        "Invoice": 884919,
        "Usage": 9882
    },
    {
        "c": 126,
        "i": 29,
        "Invoice": 884918,
        "Usage": 9852
    },
    {
        "c": 126,
        "i": 28,
        "Invoice": 884917,
        "Usage": 9822
    },
    {
        "c": 126,
        "i": 27,
        "Invoice": 884916,
        "Usage": 9792
    },
    {
        "c": 126,
        "i": 26,
        "Invoice": 884915,
        "Usage": 9762
    },
    {
        "c": 126,
        "i": 25,
        "Invoice": 884914,
        "Usage": 9732
    },
    {
        "c": 126,
        "i": 24,
        "Invoice": 884913,
        "Usage": 9702
    },
    {
        "c": 126,
        "i": 23,
        "Invoice": 884912,
        "Usage": 9672
    },
    {
        "c": 126,
        "i": 22,
        "Invoice": 884911,
        "Usage": 9642
    },
    {
        "c": 126,
        "i": 21,
        "Invoice": 884910,
        "Usage": 9612
    },
    {
        "c": 126,
        "i": 20,
        "Invoice": 884909,
        "Usage": 9582
    },
    {
        "c": 126,
        "i": 19,
        "Invoice": 884908,
        "Usage": 9552
    },
    {
        "c": 126,
        "i": 18,
        "Invoice": 884907,
        "Usage": 9522
    },
    {
        "c": 126,
        "i": 17,
        "Invoice": 884906,
        "Usage": 9492
    },
    {
        "c": 126,
        "i": 16,
        "Invoice": 884905,
        "Usage": 9462
    },
    {
        "c": 126,
        "i": 15,
        "Invoice": 884904,
        "Usage": 9432
    },
    {
        "c": 126,
        "i": 14,
        "Invoice": 884903,
        "Usage": 9402
    },
    {
        "c": 126,
        "i": 13,
        "Invoice": 884902,
        "Usage": 9372
    },
    {
        "c": 126,
        "i": 12,
        "Invoice": 884901,
        "Usage": 9342
    },
    {
        "c": 126,
        "i": 11,
        "Invoice": 884900,
        "Usage": 9312
    },
    {
        "c": 126,
        "i": 10,
        "Invoice": 884899,
        "Usage": 9282
    },
    {
        "c": 126,
        "i": 9,
        "Invoice": 884898,
        "Usage": 9252
    },
    {
        "c": 126,
        "i": 8,
        "Invoice": 884897,
        "Usage": 9222
    },
    {
        "c": 126,
        "i": 7,
        "Invoice": 884896,
        "Usage": 9192
    },
    {
        "c": 126,
        "i": 6,
        "Invoice": 884895,
        "Usage": 9162
    },
    {
        "c": 126,
        "i": 5,
        "Invoice": 884894,
        "Usage": 9132
    },
    {
        "c": 126,
        "i": 4,
        "Invoice": 884893,
        "Usage": 9102
    },
    {
        "c": 126,
        "i": 3,
        "Invoice": 884892,
        "Usage": 9072
    },
    {
        "c": 126,
        "i": 2,
        "Invoice": 884891,
        "Usage": 9042
    },
    {
        "c": 126,
        "i": 1,
        "Invoice": 884890,
        "Usage": 9012
    },
    {
        "c": 126,
        "i": 0,
        "Invoice": 884889,
        "Usage": 8982
    },
    {
        "c": 125,
        "i": 0,
        "Invoice": 884888,
        "Usage": 8952
    },
    {
        "c": 124,
        "i": 1,
        "Invoice": 884887,
        "Usage": 8922
    },
    {
        "c": 124,
        "i": 0,
        "Invoice": 884886,
        "Usage": 8892
    },
    {
        "c": 123,
        "i": 2,
        "Invoice": 884885,
        "Usage": 8862
    },
    {
        "c": 123,
        "i": 1,
        "Invoice": 884884,
        "Usage": 8832
    },
    {
        "c": 123,
        "i": 0,
        "Invoice": 884883,
        "Usage": 8802
    },
    {
        "c": 122,
        "i": 0,
        "Invoice": 884882,
        "Usage": 8772
    },
    {
        "c": 121,
        "i": 1,
        "Invoice": 884881,
        "Usage": 8742
    },
    {
        "c": 121,
        "i": 0,
        "Invoice": 884880,
        "Usage": 8712
    },
    {
        "c": 120,
        "i": 2,
        "Invoice": 884879,
        "Usage": 8682
    },
    {
        "c": 120,
        "i": 1,
        "Invoice": 884878,
        "Usage": 8652
    },
    {
        "c": 120,
        "i": 0,
        "Invoice": 884877,
        "Usage": 8622
    },
    {
        "c": 119,
        "i": 1,
        "Invoice": 884876,
        "Usage": 8592
    },
    {
        "c": 119,
        "i": 0,
        "Invoice": 884875,
        "Usage": 8562
    },
    {
        "c": 118,
        "i": 3,
        "Invoice": 884874,
        "Usage": 8532
    },
    {
        "c": 118,
        "i": 2,
        "Invoice": 884873,
        "Usage": 8502
    },
    {
        "c": 118,
        "i": 1,
        "Invoice": 884872,
        "Usage": 8472
    },
    {
        "c": 118,
        "i": 0,
        "Invoice": 884871,
        "Usage": 8442
    },
    {
        "c": 117,
        "i": 2,
        "Invoice": 884870,
        "Usage": 8412
    },
    {
        "c": 117,
        "i": 1,
        "Invoice": 884869,
        "Usage": 8382
    },
    {
        "c": 117,
        "i": 0,
        "Invoice": 884868,
        "Usage": 8352
    },
    {
        "c": 116,
        "i": 3,
        "Invoice": 884867,
        "Usage": 8322
    },
    {
        "c": 116,
        "i": 2,
        "Invoice": 884866,
        "Usage": 8292
    },
    {
        "c": 116,
        "i": 1,
        "Invoice": 884865,
        "Usage": 8262
    },
    {
        "c": 116,
        "i": 0,
        "Invoice": 884864,
        "Usage": 8232
    },
    {
        "c": 115,
        "i": 0,
        "Invoice": 884863,
        "Usage": 8202
    },
    {
        "c": 114,
        "i": 0,
        "Invoice": 884862,
        "Usage": 8172
    },
    {
        "c": 113,
        "i": 1,
        "Invoice": 884861,
        "Usage": 8142
    },
    {
        "c": 113,
        "i": 0,
        "Invoice": 884860,
        "Usage": 8112
    },
    {
        "c": 112,
        "i": 3,
        "Invoice": 884859,
        "Usage": 8082
    },
    {
        "c": 112,
        "i": 2,
        "Invoice": 884858,
        "Usage": 8052
    },
    {
        "c": 112,
        "i": 1,
        "Invoice": 884857,
        "Usage": 8022
    },
    {
        "c": 112,
        "i": 0,
        "Invoice": 884856,
        "Usage": 7992
    },
    {
        "c": 111,
        "i": 3,
        "Invoice": 884855,
        "Usage": 7962
    },
    {
        "c": 111,
        "i": 2,
        "Invoice": 884854,
        "Usage": 7932
    },
    {
        "c": 111,
        "i": 1,
        "Invoice": 884853,
        "Usage": 7902
    },
    {
        "c": 111,
        "i": 0,
        "Invoice": 884852,
        "Usage": 7872
    },
    {
        "c": 110,
        "i": 1,
        "Invoice": 884851,
        "Usage": 7842
    },
    {
        "c": 110,
        "i": 0,
        "Invoice": 884850,
        "Usage": 7812
    },
    {
        "c": 109,
        "i": 8,
        "Invoice": 884849,
        "Usage": 7782
    },
    {
        "c": 109,
        "i": 7,
        "Invoice": 884848,
        "Usage": 7752
    },
    {
        "c": 109,
        "i": 6,
        "Invoice": 884847,
        "Usage": 7722
    },
    {
        "c": 109,
        "i": 5,
        "Invoice": 884846,
        "Usage": 7692
    },
    {
        "c": 109,
        "i": 4,
        "Invoice": 884845,
        "Usage": 7662
    },
    {
        "c": 109,
        "i": 3,
        "Invoice": 884844,
        "Usage": 7632
    },
    {
        "c": 109,
        "i": 2,
        "Invoice": 884843,
        "Usage": 7602
    },
    {
        "c": 109,
        "i": 1,
        "Invoice": 884842,
        "Usage": 7572
    },
    {
        "c": 109,
        "i": 0,
        "Invoice": 884841,
        "Usage": 7542
    },
    {
        "c": 108,
        "i": 0,
        "Invoice": 884840,
        "Usage": 7512
    },
    {
        "c": 107,
        "i": 1,
        "Invoice": 884839,
        "Usage": 7482
    },
    {
        "c": 107,
        "i": 0,
        "Invoice": 884838,
        "Usage": 7452
    },
    {
        "c": 106,
        "i": 1,
        "Invoice": 884837,
        "Usage": 7422
    },
    {
        "c": 106,
        "i": 0,
        "Invoice": 884836,
        "Usage": 7392
    },
    {
        "c": 105,
        "i": 0,
        "Invoice": 884835,
        "Usage": 7362
    },
    {
        "c": 104,
        "i": 1,
        "Invoice": 884834,
        "Usage": 7332
    },
    {
        "c": 104,
        "i": 0,
        "Invoice": 884833,
        "Usage": 7302
    },
    {
        "c": 103,
        "i": 1,
        "Invoice": 884832,
        "Usage": 7272
    },
    {
        "c": 103,
        "i": 0,
        "Invoice": 884831,
        "Usage": 7242
    },
    {
        "c": 102,
        "i": 1,
        "Invoice": 884830,
        "Usage": 7212
    },
    {
        "c": 102,
        "i": 0,
        "Invoice": 884829,
        "Usage": 7182
    },
    {
        "c": 101,
        "i": 1,
        "Invoice": 884828,
        "Usage": 7152
    },
    {
        "c": 101,
        "i": 0,
        "Invoice": 884827,
        "Usage": 7122
    },
    {
        "c": 100,
        "i": 41,
        "Invoice": 884826,
        "Usage": 7092
    },
    {
        "c": 100,
        "i": 40,
        "Invoice": 884825,
        "Usage": 7062
    },
    {
        "c": 100,
        "i": 39,
        "Invoice": 884824,
        "Usage": 7032
    },
    {
        "c": 100,
        "i": 38,
        "Invoice": 884823,
        "Usage": 7002
    },
    {
        "c": 100,
        "i": 37,
        "Invoice": 884822,
        "Usage": 6972
    },
    {
        "c": 100,
        "i": 36,
        "Invoice": 884821,
        "Usage": 6942
    },
    {
        "c": 100,
        "i": 35,
        "Invoice": 884820,
        "Usage": 6912
    },
    {
        "c": 100,
        "i": 34,
        "Invoice": 884819,
        "Usage": 6882
    },
    {
        "c": 100,
        "i": 33,
        "Invoice": 884818,
        "Usage": 6852
    },
    {
        "c": 100,
        "i": 32,
        "Invoice": 884817,
        "Usage": 6822
    },
    {
        "c": 100,
        "i": 31,
        "Invoice": 884816,
        "Usage": 6792
    },
    {
        "c": 100,
        "i": 30,
        "Invoice": 884815,
        "Usage": 6762
    },
    {
        "c": 100,
        "i": 29,
        "Invoice": 884814,
        "Usage": 6732
    },
    {
        "c": 100,
        "i": 28,
        "Invoice": 884813,
        "Usage": 6702
    },
    {
        "c": 100,
        "i": 27,
        "Invoice": 884812,
        "Usage": 6672
    },
    {
        "c": 100,
        "i": 26,
        "Invoice": 884811,
        "Usage": 6642
    },
    {
        "c": 100,
        "i": 25,
        "Invoice": 884810,
        "Usage": 6612
    },
    {
        "c": 100,
        "i": 24,
        "Invoice": 884809,
        "Usage": 6582
    },
    {
        "c": 100,
        "i": 23,
        "Invoice": 884808,
        "Usage": 6552
    },
    {
        "c": 100,
        "i": 22,
        "Invoice": 884807,
        "Usage": 6522
    },
    {
        "c": 100,
        "i": 21,
        "Invoice": 884806,
        "Usage": 6492
    },
    {
        "c": 100,
        "i": 20,
        "Invoice": 884805,
        "Usage": 6462
    },
    {
        "c": 100,
        "i": 19,
        "Invoice": 884804,
        "Usage": 6432
    },
    {
        "c": 100,
        "i": 18,
        "Invoice": 884803,
        "Usage": 6402
    },
    {
        "c": 100,
        "i": 17,
        "Invoice": 884802,
        "Usage": 6372
    },
    {
        "c": 100,
        "i": 16,
        "Invoice": 884801,
        "Usage": 6342
    },
    {
        "c": 100,
        "i": 15,
        "Invoice": 884800,
        "Usage": 6312
    },
    {
        "c": 100,
        "i": 14,
        "Invoice": 884799,
        "Usage": 6282
    },
    {
        "c": 100,
        "i": 13,
        "Invoice": 884798,
        "Usage": 6252
    },
    {
        "c": 100,
        "i": 12,
        "Invoice": 884797,
        "Usage": 6222
    },
    {
        "c": 100,
        "i": 11,
        "Invoice": 884796,
        "Usage": 6192
    },
    {
        "c": 100,
        "i": 10,
        "Invoice": 884795,
        "Usage": 6162
    },
    {
        "c": 100,
        "i": 9,
        "Invoice": 884794,
        "Usage": 6132
    },
    {
        "c": 100,
        "i": 8,
        "Invoice": 884793,
        "Usage": 6102
    },
    {
        "c": 100,
        "i": 7,
        "Invoice": 884792,
        "Usage": 6072
    },
    {
        "c": 100,
        "i": 6,
        "Invoice": 884791,
        "Usage": 6042
    },
    {
        "c": 100,
        "i": 5,
        "Invoice": 884790,
        "Usage": 6012
    },
    {
        "c": 100,
        "i": 4,
        "Invoice": 884789,
        "Usage": 5982
    },
    {
        "c": 100,
        "i": 3,
        "Invoice": 884788,
        "Usage": 5952
    },
    {
        "c": 100,
        "i": 2,
        "Invoice": 884787,
        "Usage": 5922
    },
    {
        "c": 100,
        "i": 1,
        "Invoice": 884786,
        "Usage": 5892
    },
    {
        "c": 100,
        "i": 0,
        "Invoice": 884785,
        "Usage": 5862
    },
    {
        "c": 99,
        "i": 0,
        "Invoice": 884784,
        "Usage": 5832
    },
    {
        "c": 98,
        "i": 2,
        "Invoice": 884783,
        "Usage": 5802
    },
    {
        "c": 98,
        "i": 1,
        "Invoice": 884782,
        "Usage": 5772
    },
    {
        "c": 98,
        "i": 0,
        "Invoice": 884781,
        "Usage": 5742
    },
    {
        "c": 97,
        "i": 0,
        "Invoice": 884780,
        "Usage": 5712
    },
    {
        "c": 96,
        "i": 29,
        "Invoice": 884779,
        "Usage": 5682
    },
    {
        "c": 96,
        "i": 28,
        "Invoice": 884778,
        "Usage": 5652
    },
    {
        "c": 96,
        "i": 27,
        "Invoice": 884777,
        "Usage": 5622
    },
    {
        "c": 96,
        "i": 26,
        "Invoice": 884776,
        "Usage": 5592
    },
    {
        "c": 96,
        "i": 25,
        "Invoice": 884775,
        "Usage": 5562
    },
    {
        "c": 96,
        "i": 24,
        "Invoice": 884774,
        "Usage": 5532
    },
    {
        "c": 96,
        "i": 23,
        "Invoice": 884773,
        "Usage": 5502
    },
    {
        "c": 96,
        "i": 22,
        "Invoice": 884772,
        "Usage": 5472
    },
    {
        "c": 96,
        "i": 21,
        "Invoice": 884771,
        "Usage": 5442
    },
    {
        "c": 96,
        "i": 20,
        "Invoice": 884770,
        "Usage": 5412
    },
    {
        "c": 96,
        "i": 19,
        "Invoice": 884769,
        "Usage": 5382
    },
    {
        "c": 96,
        "i": 18,
        "Invoice": 884768,
        "Usage": 5352
    },
    {
        "c": 96,
        "i": 17,
        "Invoice": 884767,
        "Usage": 5322
    },
    {
        "c": 96,
        "i": 16,
        "Invoice": 884766,
        "Usage": 5292
    },
    {
        "c": 96,
        "i": 15,
        "Invoice": 884765,
        "Usage": 5262
    },
    {
        "c": 96,
        "i": 14,
        "Invoice": 884764,
        "Usage": 5232
    },
    {
        "c": 96,
        "i": 13,
        "Invoice": 884763,
        "Usage": 5202
    },
    {
        "c": 96,
        "i": 12,
        "Invoice": 884762,
        "Usage": 5172
    },
    {
        "c": 96,
        "i": 11,
        "Invoice": 884761,
        "Usage": 5142
    },
    {
        "c": 96,
        "i": 10,
        "Invoice": 884760,
        "Usage": 5112
    },
    {
        "c": 96,
        "i": 9,
        "Invoice": 884759,
        "Usage": 5082
    },
    {
        "c": 96,
        "i": 8,
        "Invoice": 884758,
        "Usage": 5052
    },
    {
        "c": 96,
        "i": 7,
        "Invoice": 884757,
        "Usage": 5022
    },
    {
        "c": 96,
        "i": 6,
        "Invoice": 884756,
        "Usage": 4992
    },
    {
        "c": 96,
        "i": 5,
        "Invoice": 884755,
        "Usage": 4962
    },
    {
        "c": 96,
        "i": 4,
        "Invoice": 884754,
        "Usage": 4932
    },
    {
        "c": 96,
        "i": 3,
        "Invoice": 884753,
        "Usage": 4902
    },
    {
        "c": 96,
        "i": 2,
        "Invoice": 884752,
        "Usage": 4872
    },
    {
        "c": 96,
        "i": 1,
        "Invoice": 884751,
        "Usage": 4842
    },
    {
        "c": 96,
        "i": 0,
        "Invoice": 884750,
        "Usage": 4812
    },
    {
        "c": 95,
        "i": 0,
        "Invoice": 884749,
        "Usage": 4782
    },
    {
        "c": 94,
        "i": 2,
        "Invoice": 884748,
        "Usage": 4752
    },
    {
        "c": 94,
        "i": 1,
        "Invoice": 884747,
        "Usage": 4722
    },
    {
        "c": 94,
        "i": 0,
        "Invoice": 884746,
        "Usage": 4692
    },
    {
        "c": 93,
        "i": 0,
        "Invoice": 884745,
        "Usage": 4662
    },
    {
        "c": 92,
        "i": 2,
        "Invoice": 884744,
        "Usage": 4632
    },
    {
        "c": 92,
        "i": 1,
        "Invoice": 884743,
        "Usage": 4602
    },
    {
        "c": 92,
        "i": 0,
        "Invoice": 884742,
        "Usage": 4572
    },
    {
        "c": 91,
        "i": 1,
        "Invoice": 884741,
        "Usage": 4542
    },
    {
        "c": 91,
        "i": 0,
        "Invoice": 884740,
        "Usage": 4512
    },
    {
        "c": 90,
        "i": 1,
        "Invoice": 884739,
        "Usage": 4482
    },
    {
        "c": 90,
        "i": 0,
        "Invoice": 884738,
        "Usage": 4452
    },
    {
        "c": 89,
        "i": 0,
        "Invoice": 884737,
        "Usage": 4422
    },
    {
        "c": 88,
        "i": 2,
        "Invoice": 884736,
        "Usage": 4392
    },
    {
        "c": 88,
        "i": 1,
        "Invoice": 884735,
        "Usage": 4362
    },
    {
        "c": 88,
        "i": 0,
        "Invoice": 884734,
        "Usage": 4332
    },
    {
        "c": 87,
        "i": 0,
        "Invoice": 884733,
        "Usage": 4302
    },
    {
        "c": 86,
        "i": 0,
        "Invoice": 884732,
        "Usage": 4272
    },
    {
        "c": 85,
        "i": 2,
        "Invoice": 884731,
        "Usage": 4242
    },
    {
        "c": 85,
        "i": 1,
        "Invoice": 884730,
        "Usage": 4212
    },
    {
        "c": 85,
        "i": 0,
        "Invoice": 884729,
        "Usage": 4182
    },
    {
        "c": 84,
        "i": 11,
        "Invoice": 884728,
        "Usage": 4152
    },
    {
        "c": 84,
        "i": 10,
        "Invoice": 884727,
        "Usage": 4122
    },
    {
        "c": 84,
        "i": 9,
        "Invoice": 884726,
        "Usage": 4092
    },
    {
        "c": 84,
        "i": 8,
        "Invoice": 884725,
        "Usage": 4062
    },
    {
        "c": 84,
        "i": 7,
        "Invoice": 884724,
        "Usage": 4032
    },
    {
        "c": 84,
        "i": 6,
        "Invoice": 884723,
        "Usage": 4002
    },
    {
        "c": 84,
        "i": 5,
        "Invoice": 884722,
        "Usage": 3972
    },
    {
        "c": 84,
        "i": 4,
        "Invoice": 884721,
        "Usage": 3942
    },
    {
        "c": 84,
        "i": 3,
        "Invoice": 884720,
        "Usage": 3912
    },
    {
        "c": 84,
        "i": 2,
        "Invoice": 884719,
        "Usage": 3882
    },
    {
        "c": 84,
        "i": 1,
        "Invoice": 884718,
        "Usage": 3852
    },
    {
        "c": 84,
        "i": 0,
        "Invoice": 884717,
        "Usage": 3822
    },
    {
        "c": 83,
        "i": 5,
        "Invoice": 884716,
        "Usage": 3792
    },
    {
        "c": 83,
        "i": 4,
        "Invoice": 884715,
        "Usage": 3762
    },
    {
        "c": 83,
        "i": 3,
        "Invoice": 884714,
        "Usage": 3732
    },
    {
        "c": 83,
        "i": 2,
        "Invoice": 884713,
        "Usage": 3702
    },
    {
        "c": 83,
        "i": 1,
        "Invoice": 884712,
        "Usage": 3672
    },
    {
        "c": 83,
        "i": 0,
        "Invoice": 884711,
        "Usage": 3642
    },
    {
        "c": 82,
        "i": 3,
        "Invoice": 884710,
        "Usage": 3612
    },
    {
        "c": 82,
        "i": 2,
        "Invoice": 884709,
        "Usage": 3582
    },
    {
        "c": 82,
        "i": 1,
        "Invoice": 884708,
        "Usage": 3552
    },
    {
        "c": 82,
        "i": 0,
        "Invoice": 884707,
        "Usage": 3522
    },
    {
        "c": 81,
        "i": 0,
        "Invoice": 884706,
        "Usage": 3492
    },
    {
        "c": 80,
        "i": 4,
        "Invoice": 884705,
        "Usage": 3462
    },
    {
        "c": 80,
        "i": 3,
        "Invoice": 884704,
        "Usage": 3432
    },
    {
        "c": 80,
        "i": 2,
        "Invoice": 884703,
        "Usage": 3402
    },
    {
        "c": 80,
        "i": 1,
        "Invoice": 884702,
        "Usage": 3372
    },
    {
        "c": 80,
        "i": 0,
        "Invoice": 884701,
        "Usage": 3342
    },
    {
        "c": 79,
        "i": 1,
        "Invoice": 884700,
        "Usage": 3312
    },
    {
        "c": 79,
        "i": 0,
        "Invoice": 884699,
        "Usage": 3282
    },
    {
        "c": 78,
        "i": 6,
        "Invoice": 884698,
        "Usage": 3252
    },
    {
        "c": 78,
        "i": 5,
        "Invoice": 884697,
        "Usage": 3222
    },
    {
        "c": 78,
        "i": 4,
        "Invoice": 884696,
        "Usage": 3192
    },
    {
        "c": 78,
        "i": 3,
        "Invoice": 884695,
        "Usage": 3162
    },
    {
        "c": 78,
        "i": 2,
        "Invoice": 884694,
        "Usage": 3132
    },
    {
        "c": 78,
        "i": 1,
        "Invoice": 884693,
        "Usage": 3102
    },
    {
        "c": 78,
        "i": 0,
        "Invoice": 884692,
        "Usage": 3072
    },
    {
        "c": 77,
        "i": 2,
        "Invoice": 884691,
        "Usage": 3042
    },
    {
        "c": 77,
        "i": 1,
        "Invoice": 884690,
        "Usage": 3012
    },
    {
        "c": 77,
        "i": 0,
        "Invoice": 884689,
        "Usage": 2982
    },
    {
        "c": 76,
        "i": 0,
        "Invoice": 884688,
        "Usage": 2952
    },
    {
        "c": 75,
        "i": 0,
        "Invoice": 884687,
        "Usage": 2922
    },
    {
        "c": 74,
        "i": 3,
        "Invoice": 884686,
        "Usage": 2892
    },
    {
        "c": 74,
        "i": 2,
        "Invoice": 884685,
        "Usage": 2862
    },
    {
        "c": 74,
        "i": 1,
        "Invoice": 884684,
        "Usage": 2832
    },
    {
        "c": 74,
        "i": 0,
        "Invoice": 884683,
        "Usage": 2802
    },
    {
        "c": 73,
        "i": 2,
        "Invoice": 884682,
        "Usage": 2772
    },
    {
        "c": 73,
        "i": 1,
        "Invoice": 884681,
        "Usage": 2742
    },
    {
        "c": 73,
        "i": 0,
        "Invoice": 884680,
        "Usage": 2712
    },
    {
        "c": 72,
        "i": 1,
        "Invoice": 884679,
        "Usage": 2682
    },
    {
        "c": 72,
        "i": 0,
        "Invoice": 884678,
        "Usage": 2652
    },
    {
        "c": 71,
        "i": 0,
        "Invoice": 884677,
        "Usage": 2622
    },
    {
        "c": 70,
        "i": 5,
        "Invoice": 884676,
        "Usage": 2592
    },
    {
        "c": 70,
        "i": 4,
        "Invoice": 884675,
        "Usage": 2562
    },
    {
        "c": 70,
        "i": 3,
        "Invoice": 884674,
        "Usage": 2532
    },
    {
        "c": 70,
        "i": 2,
        "Invoice": 884673,
        "Usage": 2502
    },
    {
        "c": 70,
        "i": 1,
        "Invoice": 884672,
        "Usage": 2472
    },
    {
        "c": 70,
        "i": 0,
        "Invoice": 884671,
        "Usage": 2442
    },
    {
        "c": 69,
        "i": 2,
        "Invoice": 884670,
        "Usage": 2412
    },
    {
        "c": 69,
        "i": 1,
        "Invoice": 884669,
        "Usage": 2382
    },
    {
        "c": 69,
        "i": 0,
        "Invoice": 884668,
        "Usage": 2352
    },
    {
        "c": 68,
        "i": 0,
        "Invoice": 884667,
        "Usage": 2322
    },
    {
        "c": 67,
        "i": 2,
        "Invoice": 884666,
        "Usage": 2292
    },
    {
        "c": 67,
        "i": 1,
        "Invoice": 884665,
        "Usage": 2262
    },
    {
        "c": 67,
        "i": 0,
        "Invoice": 884664,
        "Usage": 2232
    },
    {
        "c": 66,
        "i": 2,
        "Invoice": 884663,
        "Usage": 2202
    },
    {
        "c": 66,
        "i": 1,
        "Invoice": 884662,
        "Usage": 2172
    },
    {
        "c": 66,
        "i": 0,
        "Invoice": 884661,
        "Usage": 2142
    },
    {
        "c": 65,
        "i": 4,
        "Invoice": 884660,
        "Usage": 2112
    },
    {
        "c": 65,
        "i": 3,
        "Invoice": 884659,
        "Usage": 2082
    },
    {
        "c": 65,
        "i": 2,
        "Invoice": 884658,
        "Usage": 2052
    },
    {
        "c": 65,
        "i": 1,
        "Invoice": 884657,
        "Usage": 2022
    },
    {
        "c": 65,
        "i": 0,
        "Invoice": 884656,
        "Usage": 1992
    },
    {
        "c": 64,
        "i": 0,
        "Invoice": 884655,
        "Usage": 1962
    },
    {
        "c": 63,
        "i": 29,
        "Invoice": 884654,
        "Usage": 1932
    },
    {
        "c": 63,
        "i": 28,
        "Invoice": 884653,
        "Usage": 1902
    },
    {
        "c": 63,
        "i": 27,
        "Invoice": 884652,
        "Usage": 1872
    },
    {
        "c": 63,
        "i": 26,
        "Invoice": 884651,
        "Usage": 1842
    },
    {
        "c": 63,
        "i": 25,
        "Invoice": 884650,
        "Usage": 1812
    },
    {
        "c": 63,
        "i": 24,
        "Invoice": 884649,
        "Usage": 1782
    },
    {
        "c": 63,
        "i": 23,
        "Invoice": 884648,
        "Usage": 1752
    },
    {
        "c": 63,
        "i": 22,
        "Invoice": 884647,
        "Usage": 1722
    },
    {
        "c": 63,
        "i": 21,
        "Invoice": 884646,
        "Usage": 1692
    },
    {
        "c": 63,
        "i": 20,
        "Invoice": 884645,
        "Usage": 1662
    },
    {
        "c": 63,
        "i": 19,
        "Invoice": 884644,
        "Usage": 1632
    },
    {
        "c": 63,
        "i": 18,
        "Invoice": 884643,
        "Usage": 1602
    },
    {
        "c": 63,
        "i": 17,
        "Invoice": 884642,
        "Usage": 1572
    },
    {
        "c": 63,
        "i": 16,
        "Invoice": 884641,
        "Usage": 1542
    },
    {
        "c": 63,
        "i": 15,
        "Invoice": 884640,
        "Usage": 1512
    },
    {
        "c": 63,
        "i": 14,
        "Invoice": 884639,
        "Usage": 1482
    },
    {
        "c": 63,
        "i": 13,
        "Invoice": 884638,
        "Usage": 1452
    },
    {
        "c": 63,
        "i": 12,
        "Invoice": 884637,
        "Usage": 1422
    },
    {
        "c": 63,
        "i": 11,
        "Invoice": 884636,
        "Usage": 1392
    },
    {
        "c": 63,
        "i": 10,
        "Invoice": 884635,
        "Usage": 1362
    },
    {
        "c": 63,
        "i": 9,
        "Invoice": 884634,
        "Usage": 1332
    },
    {
        "c": 63,
        "i": 8,
        "Invoice": 884633,
        "Usage": 1302
    },
    {
        "c": 63,
        "i": 7,
        "Invoice": 884632,
        "Usage": 1272
    },
    {
        "c": 63,
        "i": 6,
        "Invoice": 884631,
        "Usage": 1242
    },
    {
        "c": 63,
        "i": 5,
        "Invoice": 884630,
        "Usage": 1212
    },
    {
        "c": 63,
        "i": 4,
        "Invoice": 884629,
        "Usage": 1182
    },
    {
        "c": 63,
        "i": 3,
        "Invoice": 884628,
        "Usage": 1152
    },
    {
        "c": 63,
        "i": 2,
        "Invoice": 884627,
        "Usage": 1122
    },
    {
        "c": 63,
        "i": 1,
        "Invoice": 884626,
        "Usage": 1092
    },
    {
        "c": 63,
        "i": 0,
        "Invoice": 884625,
        "Usage": 1062
    },
    {
        "c": 62,
        "i": 2,
        "Invoice": 884624,
        "Usage": 1032
    },
    {
        "c": 62,
        "i": 1,
        "Invoice": 884623,
        "Usage": 1002
    },
    {
        "c": 62,
        "i": 0,
        "Invoice": 884622,
        "Usage": 972
    },
    {
        "c": 61,
        "i": 3,
        "Invoice": 884621,
        "Usage": 942
    },
    {
        "c": 61,
        "i": 2,
        "Invoice": 884620,
        "Usage": 912
    },
    {
        "c": 61,
        "i": 1,
        "Invoice": 884619,
        "Usage": 882
    },
    {
        "c": 61,
        "i": 0,
        "Invoice": 884618,
        "Usage": 852
    },
    {
        "c": 60,
        "i": 0,
        "Invoice": 884617,
        "Usage": 822
    },
    {
        "c": 59,
        "i": 3,
        "Invoice": 884616,
        "Usage": 792
    },
    {
        "c": 59,
        "i": 2,
        "Invoice": 884615,
        "Usage": 762
    },
    {
        "c": 59,
        "i": 1,
        "Invoice": 884614,
        "Usage": 732
    },
    {
        "c": 59,
        "i": 0,
        "Invoice": 884613,
        "Usage": 702
    },
    {
        "c": 58,
        "i": 5,
        "Invoice": 884612,
        "Usage": 672
    },
    {
        "c": 58,
        "i": 4,
        "Invoice": 884611,
        "Usage": 642
    },
    {
        "c": 58,
        "i": 3,
        "Invoice": 884610,
        "Usage": 612
    },
    {
        "c": 58,
        "i": 2,
        "Invoice": 884609,
        "Usage": 582
    },
    {
        "c": 58,
        "i": 1,
        "Invoice": 884608,
        "Usage": 552
    },
    {
        "c": 58,
        "i": 0,
        "Invoice": 884607,
        "Usage": 522
    },
    {
        "c": 57,
        "i": 1,
        "Invoice": 884606,
        "Usage": 492
    },
    {
        "c": 57,
        "i": 0,
        "Invoice": 884605,
        "Usage": 462
    },
    {
        "c": 56,
        "i": 2,
        "Invoice": 884604,
        "Usage": 432
    },
    {
        "c": 56,
        "i": 1,
        "Invoice": 884603,
        "Usage": 402
    },
    {
        "c": 56,
        "i": 0,
        "Invoice": 884602,
        "Usage": 372
    },
    {
        "c": 55,
        "i": 0,
        "Invoice": 884601,
        "Usage": 342
    },
    {
        "c": 54,
        "i": 2,
        "Invoice": 884600,
        "Usage": 312
    },
    {
        "c": 54,
        "i": 1,
        "Invoice": 884599,
        "Usage": 282
    },
    {
        "c": 54,
        "i": 0,
        "Invoice": 884598,
        "Usage": 252
    },
    {
        "c": 53,
        "i": 2,
        "Invoice": 884597,
        "Usage": 222
    },
    {
        "c": 53,
        "i": 1,
        "Invoice": 884596,
        "Usage": 192
    },
    {
        "c": 53,
        "i": 0,
        "Invoice": 884595,
        "Usage": 162
    },
    {
        "c": 52,
        "i": 0,
        "Invoice": 884594,
        "Usage": 132
    },
    {
        "c": 51,
        "i": 0,
        "Invoice": 884593,
        "Usage": 102
    },
    {
        "c": 50,
        "i": 1,
        "Invoice": 884592,
        "Usage": 72
    },
    {
        "c": 50,
        "i": 0,
        "Invoice": 884591,
        "Usage": 42
    },
    {
        "c": 49,
        "i": 1,
        "Invoice": 884573,
        "Usage": 5502
    },
    {
        "c": 49,
        "i": 0,
        "Invoice": 884572,
        "Usage": 5472
    },
    {
        "c": 48,
        "i": 1,
        "Invoice": 884571,
        "Usage": 5442
    },
    {
        "c": 48,
        "i": 0,
        "Invoice": 884570,
        "Usage": 5412
    },
    {
        "c": 47,
        "i": 1,
        "Invoice": 884569,
        "Usage": 5382
    },
    {
        "c": 47,
        "i": 0,
        "Invoice": 884568,
        "Usage": 5352
    },
    {
        "c": 46,
        "i": 2,
        "Invoice": 884567,
        "Usage": 5322
    },
    {
        "c": 46,
        "i": 1,
        "Invoice": 884566,
        "Usage": 5292
    },
    {
        "c": 46,
        "i": 0,
        "Invoice": 884565,
        "Usage": 5262
    },
    {
        "c": 45,
        "i": 3,
        "Invoice": 884564,
        "Usage": 5232
    },
    {
        "c": 45,
        "i": 2,
        "Invoice": 884563,
        "Usage": 5202
    },
    {
        "c": 45,
        "i": 1,
        "Invoice": 884562,
        "Usage": 5172
    },
    {
        "c": 45,
        "i": 0,
        "Invoice": 884561,
        "Usage": 5142
    },
    {
        "c": 44,
        "i": 1,
        "Invoice": 884560,
        "Usage": 5112
    },
    {
        "c": 44,
        "i": 0,
        "Invoice": 884559,
        "Usage": 5082
    },
    {
        "c": 43,
        "i": 7,
        "Invoice": 884558,
        "Usage": 5052
    },
    {
        "c": 43,
        "i": 6,
        "Invoice": 884557,
        "Usage": 5022
    },
    {
        "c": 43,
        "i": 5,
        "Invoice": 884556,
        "Usage": 4992
    },
    {
        "c": 43,
        "i": 4,
        "Invoice": 884555,
        "Usage": 4962
    },
    {
        "c": 43,
        "i": 3,
        "Invoice": 884554,
        "Usage": 4932
    },
    {
        "c": 43,
        "i": 2,
        "Invoice": 884553,
        "Usage": 4902
    },
    {
        "c": 43,
        "i": 1,
        "Invoice": 884552,
        "Usage": 4872
    },
    {
        "c": 43,
        "i": 0,
        "Invoice": 884551,
        "Usage": 4842
    },
    {
        "c": 42,
        "i": 1,
        "Invoice": 884550,
        "Usage": 4812
    },
    {
        "c": 42,
        "i": 0,
        "Invoice": 884549,
        "Usage": 4782
    },
    {
        "c": 41,
        "i": 0,
        "Invoice": 884548,
        "Usage": 4752
    },
    {
        "c": 40,
        "i": 3,
        "Invoice": 884547,
        "Usage": 4722
    },
    {
        "c": 40,
        "i": 2,
        "Invoice": 884546,
        "Usage": 4692
    },
    {
        "c": 40,
        "i": 1,
        "Invoice": 884545,
        "Usage": 4662
    },
    {
        "c": 40,
        "i": 0,
        "Invoice": 884544,
        "Usage": 4632
    },
    {
        "c": 39,
        "i": 3,
        "Invoice": 884543,
        "Usage": 4602
    },
    {
        "c": 39,
        "i": 2,
        "Invoice": 884542,
        "Usage": 4572
    },
    {
        "c": 39,
        "i": 1,
        "Invoice": 884541,
        "Usage": 4542
    },
    {
        "c": 39,
        "i": 0,
        "Invoice": 884540,
        "Usage": 4512
    },
    {
        "c": 38,
        "i": 0,
        "Invoice": 884539,
        "Usage": 4482
    },
    {
        "c": 37,
        "i": 0,
        "Invoice": 884538,
        "Usage": 4452
    },
    {
        "c": 36,
        "i": 3,
        "Invoice": 884537,
        "Usage": 4422
    },
    {
        "c": 36,
        "i": 2,
        "Invoice": 884536,
        "Usage": 4392
    },
    {
        "c": 36,
        "i": 1,
        "Invoice": 884535,
        "Usage": 4362
    },
    {
        "c": 36,
        "i": 0,
        "Invoice": 884534,
        "Usage": 4332
    },
    {
        "c": 35,
        "i": 1,
        "Invoice": 884533,
        "Usage": 4302
    },
    {
        "c": 35,
        "i": 0,
        "Invoice": 884532,
        "Usage": 4272
    },
    {
        "c": 34,
        "i": 5,
        "Invoice": 884531,
        "Usage": 4242
    },
    {
        "c": 34,
        "i": 4,
        "Invoice": 884530,
        "Usage": 4212
    },
    {
        "c": 34,
        "i": 3,
        "Invoice": 884529,
        "Usage": 4182
    },
    {
        "c": 34,
        "i": 2,
        "Invoice": 884528,
        "Usage": 4152
    },
    {
        "c": 34,
        "i": 1,
        "Invoice": 884527,
        "Usage": 4122
    },
    {
        "c": 34,
        "i": 0,
        "Invoice": 884526,
        "Usage": 4092
    },
    {
        "c": 33,
        "i": 3,
        "Invoice": 884525,
        "Usage": 4062
    },
    {
        "c": 33,
        "i": 2,
        "Invoice": 884524,
        "Usage": 4032
    },
    {
        "c": 33,
        "i": 1,
        "Invoice": 884523,
        "Usage": 4002
    },
    {
        "c": 33,
        "i": 0,
        "Invoice": 884522,
        "Usage": 3972
    },
    {
        "c": 32,
        "i": 1,
        "Invoice": 884521,
        "Usage": 3942
    },
    {
        "c": 32,
        "i": 0,
        "Invoice": 884520,
        "Usage": 3912
    },
    {
        "c": 31,
        "i": 0,
        "Invoice": 884519,
        "Usage": 3882
    },
    {
        "c": 30,
        "i": 1,
        "Invoice": 884518,
        "Usage": 3852
    },
    {
        "c": 30,
        "i": 0,
        "Invoice": 884517,
        "Usage": 3822
    },
    {
        "c": 29,
        "i": 0,
        "Invoice": 884516,
        "Usage": 3792
    },
    {
        "c": 28,
        "i": 1,
        "Invoice": 884515,
        "Usage": 3762
    },
    {
        "c": 28,
        "i": 0,
        "Invoice": 884514,
        "Usage": 3732
    },
    {
        "c": 27,
        "i": 0,
        "Invoice": 884513,
        "Usage": 3702
    },
    {
        "c": 26,
        "i": 0,
        "Invoice": 884512,
        "Usage": 3672
    },
    {
        "c": 25,
        "i": 2,
        "Invoice": 884511,
        "Usage": 3642
    },
    {
        "c": 25,
        "i": 1,
        "Invoice": 884510,
        "Usage": 3612
    },
    {
        "c": 25,
        "i": 0,
        "Invoice": 884509,
        "Usage": 3582
    },
    {
        "c": 24,
        "i": 0,
        "Invoice": 884508,
        "Usage": 3552
    },
    {
        "c": 23,
        "i": 0,
        "Invoice": 884507,
        "Usage": 3522
    },
    {
        "c": 22,
        "i": 3,
        "Invoice": 884506,
        "Usage": 3492
    },
    {
        "c": 22,
        "i": 2,
        "Invoice": 884505,
        "Usage": 3462
    },
    {
        "c": 22,
        "i": 1,
        "Invoice": 884504,
        "Usage": 3432
    },
    {
        "c": 22,
        "i": 0,
        "Invoice": 884503,
        "Usage": 3402
    },
    {
        "c": 21,
        "i": 5,
        "Invoice": 884502,
        "Usage": 3372
    },
    {
        "c": 21,
        "i": 4,
        "Invoice": 884501,
        "Usage": 3342
    },
    {
        "c": 21,
        "i": 3,
        "Invoice": 884500,
        "Usage": 3312
    },
    {
        "c": 21,
        "i": 2,
        "Invoice": 884499,
        "Usage": 3282
    },
    {
        "c": 21,
        "i": 1,
        "Invoice": 884498,
        "Usage": 3252
    },
    {
        "c": 21,
        "i": 0,
        "Invoice": 884497,
        "Usage": 3222
    },
    {
        "c": 20,
        "i": 0,
        "Invoice": 884496,
        "Usage": 3192
    },
    {
        "c": 19,
        "i": 3,
        "Invoice": 884495,
        "Usage": 3162
    },
    {
        "c": 19,
        "i": 2,
        "Invoice": 884494,
        "Usage": 3132
    },
    {
        "c": 19,
        "i": 1,
        "Invoice": 884493,
        "Usage": 3102
    },
    {
        "c": 19,
        "i": 0,
        "Invoice": 884492,
        "Usage": 3072
    },
    {
        "c": 18,
        "i": 0,
        "Invoice": 884491,
        "Usage": 3042
    },
    {
        "c": 17,
        "i": 4,
        "Invoice": 884490,
        "Usage": 3012
    },
    {
        "c": 17,
        "i": 3,
        "Invoice": 884489,
        "Usage": 2982
    },
    {
        "c": 17,
        "i": 2,
        "Invoice": 884488,
        "Usage": 2952
    },
    {
        "c": 17,
        "i": 1,
        "Invoice": 884487,
        "Usage": 2922
    },
    {
        "c": 17,
        "i": 0,
        "Invoice": 884486,
        "Usage": 2892
    },
    {
        "c": 16,
        "i": 1,
        "Invoice": 884485,
        "Usage": 2862
    },
    {
        "c": 16,
        "i": 0,
        "Invoice": 884484,
        "Usage": 2832
    },
    {
        "c": 15,
        "i": 5,
        "Invoice": 884483,
        "Usage": 2802
    },
    {
        "c": 15,
        "i": 4,
        "Invoice": 884482,
        "Usage": 2772
    },
    {
        "c": 15,
        "i": 3,
        "Invoice": 884481,
        "Usage": 2742
    },
    {
        "c": 15,
        "i": 2,
        "Invoice": 884480,
        "Usage": 2712
    },
    {
        "c": 15,
        "i": 1,
        "Invoice": 884479,
        "Usage": 2682
    },
    {
        "c": 15,
        "i": 0,
        "Invoice": 884478,
        "Usage": 2652
    },
    {
        "c": 14,
        "i": 4,
        "Invoice": 884477,
        "Usage": 2622
    },
    {
        "c": 14,
        "i": 3,
        "Invoice": 884476,
        "Usage": 2592
    },
    {
        "c": 14,
        "i": 2,
        "Invoice": 884475,
        "Usage": 2562
    },
    {
        "c": 14,
        "i": 1,
        "Invoice": 884474,
        "Usage": 2532
    },
    {
        "c": 14,
        "i": 0,
        "Invoice": 884473,
        "Usage": 2502
    },
    {
        "c": 13,
        "i": 20,
        "Invoice": 884472,
        "Usage": 2472
    },
    {
        "c": 13,
        "i": 19,
        "Invoice": 884471,
        "Usage": 2442
    },
    {
        "c": 13,
        "i": 18,
        "Invoice": 884470,
        "Usage": 2412
    },
    {
        "c": 13,
        "i": 17,
        "Invoice": 884469,
        "Usage": 2382
    },
    {
        "c": 13,
        "i": 16,
        "Invoice": 884468,
        "Usage": 2352
    },
    {
        "c": 13,
        "i": 15,
        "Invoice": 884467,
        "Usage": 2322
    },
    {
        "c": 13,
        "i": 14,
        "Invoice": 884466,
        "Usage": 2292
    },
    {
        "c": 13,
        "i": 13,
        "Invoice": 884465,
        "Usage": 2262
    },
    {
        "c": 13,
        "i": 12,
        "Invoice": 884464,
        "Usage": 2232
    },
    {
        "c": 13,
        "i": 11,
        "Invoice": 884463,
        "Usage": 2202
    },
    {
        "c": 13,
        "i": 10,
        "Invoice": 884462,
        "Usage": 2172
    },
    {
        "c": 13,
        "i": 9,
        "Invoice": 884461,
        "Usage": 2142
    },
    {
        "c": 13,
        "i": 8,
        "Invoice": 884460,
        "Usage": 2112
    },
    {
        "c": 13,
        "i": 7,
        "Invoice": 884459,
        "Usage": 2082
    },
    {
        "c": 13,
        "i": 6,
        "Invoice": 884458,
        "Usage": 2052
    },
    {
        "c": 13,
        "i": 5,
        "Invoice": 884457,
        "Usage": 2022
    },
    {
        "c": 13,
        "i": 4,
        "Invoice": 884456,
        "Usage": 1992
    },
    {
        "c": 13,
        "i": 3,
        "Invoice": 884455,
        "Usage": 1962
    },
    {
        "c": 13,
        "i": 2,
        "Invoice": 884454,
        "Usage": 1932
    },
    {
        "c": 13,
        "i": 1,
        "Invoice": 884453,
        "Usage": 1902
    },
    {
        "c": 13,
        "i": 0,
        "Invoice": 884452,
        "Usage": 1872
    },
    {
        "c": 12,
        "i": 0,
        "Invoice": 884451,
        "Usage": 1842
    },
    {
        "c": 11,
        "i": 3,
        "Invoice": 884450,
        "Usage": 1812
    },
    {
        "c": 11,
        "i": 2,
        "Invoice": 884449,
        "Usage": 1782
    },
    {
        "c": 11,
        "i": 1,
        "Invoice": 884448,
        "Usage": 1752
    },
    {
        "c": 11,
        "i": 0,
        "Invoice": 884447,
        "Usage": 1722
    },
    {
        "c": 10,
        "i": 4,
        "Invoice": 884446,
        "Usage": 1692
    },
    {
        "c": 10,
        "i": 3,
        "Invoice": 884445,
        "Usage": 1662
    },
    {
        "c": 10,
        "i": 2,
        "Invoice": 884444,
        "Usage": 1632
    },
    {
        "c": 10,
        "i": 1,
        "Invoice": 884443,
        "Usage": 1602
    },
    {
        "c": 10,
        "i": 0,
        "Invoice": 884442,
        "Usage": 1572
    },
    {
        "c": 9,
        "i": 0,
        "Invoice": 884441,
        "Usage": 1542
    },
    {
        "c": 8,
        "i": 0,
        "Invoice": 884440,
        "Usage": 1512
    },
    {
        "c": 7,
        "i": 1,
        "Invoice": 884439,
        "Usage": 1482
    },
    {
        "c": 7,
        "i": 0,
        "Invoice": 884438,
        "Usage": 1452
    },
    {
        "c": 6,
        "i": 5,
        "Invoice": 884437,
        "Usage": 1422
    },
    {
        "c": 6,
        "i": 4,
        "Invoice": 884436,
        "Usage": 1392
    },
    {
        "c": 6,
        "i": 3,
        "Invoice": 884435,
        "Usage": 1362
    },
    {
        "c": 6,
        "i": 2,
        "Invoice": 884434,
        "Usage": 1332
    },
    {
        "c": 6,
        "i": 1,
        "Invoice": 884433,
        "Usage": 1302
    },
    {
        "c": 6,
        "i": 0,
        "Invoice": 884432,
        "Usage": 1272
    },
    {
        "c": 5,
        "i": 3,
        "Invoice": 884431,
        "Usage": 1242
    },
    {
        "c": 5,
        "i": 2,
        "Invoice": 884430,
        "Usage": 1212
    },
    {
        "c": 5,
        "i": 1,
        "Invoice": 884429,
        "Usage": 1182
    },
    {
        "c": 5,
        "i": 0,
        "Invoice": 884428,
        "Usage": 1152
    },
    {
        "c": 4,
        "i": 1,
        "Invoice": 884427,
        "Usage": 1122
    },
    {
        "c": 4,
        "i": 0,
        "Invoice": 884426,
        "Usage": 1092
    },
    {
        "c": 3,
        "i": 1,
        "Invoice": 884425,
        "Usage": 1062
    },
    {
        "c": 3,
        "i": 0,
        "Invoice": 884424,
        "Usage": 1032
    },
    {
        "c": 2,
        "i": 29,
        "Invoice": 884423,
        "Usage": 1002
    },
    {
        "c": 2,
        "i": 28,
        "Invoice": 884422,
        "Usage": 972
    },
    {
        "c": 2,
        "i": 27,
        "Invoice": 884421,
        "Usage": 942
    },
    {
        "c": 2,
        "i": 26,
        "Invoice": 884420,
        "Usage": 912
    },
    {
        "c": 2,
        "i": 25,
        "Invoice": 884419,
        "Usage": 882
    },
    {
        "c": 2,
        "i": 24,
        "Invoice": 884418,
        "Usage": 852
    },
    {
        "c": 2,
        "i": 23,
        "Invoice": 884417,
        "Usage": 822
    },
    {
        "c": 2,
        "i": 22,
        "Invoice": 884416,
        "Usage": 792
    },
    {
        "c": 2,
        "i": 21,
        "Invoice": 884415,
        "Usage": 762
    },
    {
        "c": 2,
        "i": 20,
        "Invoice": 884414,
        "Usage": 732
    },
    {
        "c": 2,
        "i": 19,
        "Invoice": 884413,
        "Usage": 702
    },
    {
        "c": 2,
        "i": 18,
        "Invoice": 884412,
        "Usage": 672
    },
    {
        "c": 2,
        "i": 17,
        "Invoice": 884411,
        "Usage": 642
    },
    {
        "c": 2,
        "i": 16,
        "Invoice": 884410,
        "Usage": 612
    },
    {
        "c": 2,
        "i": 15,
        "Invoice": 884409,
        "Usage": 582
    },
    {
        "c": 2,
        "i": 14,
        "Invoice": 884408,
        "Usage": 552
    },
    {
        "c": 2,
        "i": 13,
        "Invoice": 884407,
        "Usage": 522
    },
    {
        "c": 2,
        "i": 12,
        "Invoice": 884406,
        "Usage": 492
    },
    {
        "c": 2,
        "i": 11,
        "Invoice": 884405,
        "Usage": 462
    },
    {
        "c": 2,
        "i": 10,
        "Invoice": 884404,
        "Usage": 432
    },
    {
        "c": 2,
        "i": 9,
        "Invoice": 884403,
        "Usage": 402
    },
    {
        "c": 2,
        "i": 8,
        "Invoice": 884402,
        "Usage": 372
    },
    {
        "c": 2,
        "i": 7,
        "Invoice": 884401,
        "Usage": 342
    },
    {
        "c": 2,
        "i": 6,
        "Invoice": 884400,
        "Usage": 312
    },
    {
        "c": 2,
        "i": 5,
        "Invoice": 884399,
        "Usage": 282
    },
    {
        "c": 2,
        "i": 4,
        "Invoice": 884398,
        "Usage": 252
    },
    {
        "c": 2,
        "i": 3,
        "Invoice": 884397,
        "Usage": 222
    },
    {
        "c": 2,
        "i": 2,
        "Invoice": 884396,
        "Usage": 192
    },
    {
        "c": 2,
        "i": 1,
        "Invoice": 884395,
        "Usage": 162
    },
    {
        "c": 2,
        "i": 0,
        "Invoice": 884394,
        "Usage": 132
    },
    {
        "c": 1,
        "i": 0,
        "Invoice": 884393,
        "Usage": 102
    },
    {
        "c": 0,
        "i": 1,
        "Invoice": 884392,
        "Usage": 72
    },
    {
        "c": 0,
        "i": 0,
        "Invoice": 884391,
        "Usage": 42
    }
]