[
    {
        "internalid": 7606,
        "date": "04/24/2015"
    },
    {
        "internalid": 7608,
        "date": "05/30/2015"
    },
    {
        "internalid": 13952,
        "date": "12/25/2015"
    },
    {
        "internalid": 13954,
        "date": "12/25/2015"
    },
    {
        "internalid": 13956,
        "date": "12/25/2015"
    },
    {
        "internalid": 13958,
        "date": "12/17/2015"
    },
    {
        "internalid": 13960,
        "date": "12/17/2015"
    },
    {
        "internalid": 13962,
        "date": "12/25/2015"
    },
    {
        "internalid": 14014,
        "date": "12/29/2015"
    },
    {
        "internalid": 7607,
        "date": "01/15/2015"
    },
    {
        "internalid": 7609,
        "date": "01/15/2015"
    },
    {
        "internalid": 7611,
        "date": "01/15/2015"
    },
    {
        "internalid": 13953,
        "date": "12/25/2015"
    },
    {
        "internalid": 13955,
        "date": "12/25/2015"
    },
    {
        "internalid": 13957,
        "date": "12/25/2015"
    },
    {
        "internalid": 13959,
        "date": "11/21/2015"
    },
    {
        "internalid": 13963,
        "date": "12/25/2015"
    },
    {
        "internalid": 14015,
        "date": "12/29/2015"
    }
]